<svg width="223" height="223" xmlns="http://www.w3.org/2000/svg">
    <g fill="none" fill-rule="evenodd">
        <path d="M114.686 62.833c32.274 0 58.437 25.93 58.437 57.917 0 31.987-26.163 57.917-58.437 57.917s-58.438-25.93-58.438-57.917c0-31.987 26.164-57.917 58.438-57.917M49.978 41.964c7.649 0 13.85 6.139 13.85 13.711s-6.201 13.71-13.85 13.71c-7.65 0-13.85-6.138-13.85-13.71 0-7.572 6.2-13.71 13.85-13.71" fill="#E56777"/>
        <path d="M31.538 148.913c9.036 0 16.36 7.26 16.36 16.215 0 8.954-7.324 16.214-16.36 16.214-9.035 0-16.36-7.26-16.36-16.214 0-8.955 7.325-16.215 16.36-16.215" fill="#FFF"/>
        <path d="M31.538 148.913c-9.033 0-16.36 7.258-16.36 16.215 0 8.956 7.327 16.214 16.36 16.214 9.034 0 16.36-7.258 16.36-16.214 0-8.957-7.326-16.215-16.36-16.215zm0 1.786c8.051 0 14.574 6.462 14.574 14.429 0 7.966-6.523 14.428-14.574 14.428-8.05 0-14.574-6.462-14.574-14.428 0-7.967 6.524-14.429 14.574-14.429z" fill="#100F7C"/>
        <path d="M198.683 117.67c5.183 0 9.385 4.16 9.385 9.292s-4.202 9.292-9.385 9.292-9.385-4.16-9.385-9.292c0-5.133 4.202-9.292 9.385-9.292" fill="#E56777"/>
        <path d="M176.826 46.835c4.766 0 8.63 3.825 8.63 8.544 0 4.718-3.864 8.543-8.63 8.543-4.766 0-8.63-3.825-8.63-8.543 0-4.72 3.864-8.544 8.63-8.544" fill="#FFF"/>
        <path d="M176.826 46.835c-4.764 0-8.63 3.822-8.63 8.544 0 4.72 3.866 8.543 8.63 8.543 4.764 0 8.63-3.822 8.63-8.543 0-4.722-3.866-8.544-8.63-8.544zm0 1.786c3.782 0 6.845 3.027 6.845 6.758 0 3.73-3.063 6.758-6.845 6.758-3.783 0-6.845-3.028-6.845-6.758s3.062-6.758 6.845-6.758z" fill="#100F7C"/>
        <path d="M110.923 55.719c30.918 0 55.981 25.064 55.981 55.982s-25.063 55.982-55.98 55.982c-30.919 0-55.982-25.064-55.982-55.982s25.063-55.982 55.981-55.982" fill="#FFF"/>
        <path d="M110.923 55.719c-30.917 0-55.981 25.064-55.981 55.982s25.064 55.982 55.981 55.982c30.918 0 55.981-25.064 55.981-55.982s-25.063-55.982-55.98-55.982zm0 1.785c29.931 0 54.196 24.265 54.196 54.197 0 29.932-24.265 54.196-54.196 54.196-29.93 0-54.195-24.264-54.195-54.196s24.264-54.197 54.195-54.197z" fill="#E56777"/>
        <path d="m114.135 120.254 2.719-23.096V84.603h-10.507v12.555l2.786 23.096h5.002zm2.45 13.663v-9.702h-10.003v9.702h10.003z" fill="#100F7C"/>
    </g>
</svg>
