<svg width="224" height="224" viewBox="0 0 224 224" xmlns="http://www.w3.org/2000/svg">
    <g fill="none" fill-rule="evenodd">
        <path d="M111.04 58.431c31.762 0 57.51 25.65 57.51 57.291s-25.748 57.291-57.51 57.291c-31.76 0-57.508-25.65-57.508-57.29 0-31.642 25.747-57.292 57.509-57.292M27.035 146.434c7.528 0 13.63 6.072 13.63 13.563 0 7.49-6.102 13.562-13.63 13.562-7.527 0-13.63-6.072-13.63-13.562 0-7.49 6.103-13.563 13.63-13.563" fill="#2337F0"/>
        <path d="M33.185 55.192c8.892 0 16.1 7.181 16.1 16.039 0 8.857-7.208 16.039-16.1 16.039-8.892 0-16.1-7.182-16.1-16.04 0-8.857 7.208-16.038 16.1-16.038" fill="#FFF"/>
        <path d="M33.185 56.075c8.406 0 15.221 6.786 15.221 15.156 0 8.37-6.815 15.156-15.22 15.156-8.407 0-15.222-6.786-15.222-15.156 0-8.37 6.815-15.156 15.221-15.156z" stroke="#030273" stroke-width="1.76"/>
        <path d="M181.858 56.075c5.1 0 9.236 4.115 9.236 9.191 0 5.077-4.135 9.192-9.236 9.192-5.1 0-9.236-4.115-9.236-9.192 0-5.076 4.135-9.191 9.236-9.191" fill="#2337F0"/>
        <path d="M203.102 122.665c4.69 0 8.494 3.784 8.494 8.452 0 4.667-3.803 8.451-8.494 8.451-4.69 0-8.493-3.784-8.493-8.451 0-4.668 3.803-8.452 8.493-8.452" fill="#FFF"/>
        <path d="M203.102 123.548c4.206 0 7.615 3.388 7.615 7.569 0 4.18-3.41 7.568-7.615 7.568s-7.614-3.388-7.614-7.568 3.41-7.569 7.614-7.569z" stroke="#030273" stroke-width="1.76"/>
        <path d="M112.314 50.44c30.426 0 55.092 24.794 55.092 55.378s-24.666 55.377-55.092 55.377c-30.427 0-55.092-24.793-55.092-55.377 0-30.584 24.665-55.377 55.092-55.377" fill="#FFF"/>
        <path d="M112.314 50.443c-30.429 0-55.094 24.793-55.094 55.375 0 30.581 24.665 55.375 55.094 55.375 30.428 0 55.094-24.794 55.094-55.375 0-30.582-24.666-55.375-55.094-55.375zm0 1.762c29.453 0 53.332 24.002 53.332 53.613 0 29.61-23.879 53.613-53.332 53.613-29.454 0-53.332-24.002-53.332-53.613 0-29.61 23.878-53.613 53.332-53.613z" fill="#2337F0"/>
        <text font-family="Arial-BoldMT, Arial" font-size="67.76" font-weight="bold" fill="#030273" transform="translate(13.405 50.44)">
                        <tspan x="89.362" y="79.788">i</tspan>
                    </text>
    </g>
</svg>
